[
  {
      "id": 1006984,
      "name": "East London",
      "country": "ZA",
      "coord": {
        "lon": 27.911619,
        "lat": -33.015289
      }
    },
    {
      "id": 588409,
      "name": "Tallinn",
      "country": "EE",
      "coord": {
        "lon": 24.753531,
        "lat": 59.436958
      }
    },
    {
      "id": 588335,
      "name": "Tartu",
      "country": "EE",
      "coord": {
        "lon": 26.72509,
        "lat": 58.380619
      }
    },
  {
      "id": 5106292,
      "name": "West New York",
      "country": "US",
      "coord": {
        "lon": -74.014313,
        "lat": 40.78788
      }
    },
    {
      "id": 4350049,
      "name": "California",
      "country": "US",
      "coord": {
        "lon": -76.507446,
        "lat": 38.3004
      }
    },
    {
      "id": 587084,
      "name": "Baku",
      "country": "AZ",
      "coord": {
        "lon": 49.89201,
        "lat": 40.37767
      }
    },
   {
      "id": 745044,
      "name": "Istanbul",
      "country": "TR",
      "coord": {
        "lon": 28.949659,
        "lat": 41.01384
      }
    },
  {
      "id": 3614789,
      "name": "Berlin",
      "country": "HN",
      "coord": {
        "lon": -88.5,
        "lat": 14.83333
      }
    },
   {
      "id": 589580,
      "name": "Parnu",
      "country": "EE",
      "coord": {
        "lon": 24.49711,
        "lat": 58.38588
      }
    },
  {
      "id": 590031,
      "name": "Narva",
      "country": "EE",
      "coord": {
        "lon": 28.190281,
        "lat": 59.37722
      }
    },
  {
      "id": 3669859,
      "name": "San Francisco",
      "country": "CO",
      "coord": {
        "lon": -73.210602,
        "lat": 5.56453
      }
    },
  {
      "id": 2759794,
      "name": "Amsterdam",
      "country": "NL",
      "coord": {
        "lon": 4.88969,
        "lat": 52.374031
      }
    }
  ]